{
  "project_info": {
    "project_number": "1055066053437",
    "project_id": "englearnx-8c8c4",
    "storage_bucket": "englearnx-8c8c4.appspot.com"
  },
  "client": [
    {
      "client_info": {
        "mobilesdk_app_id": "1:1055066053437:android:93e8e642a3a2cec42fc354",
        "android_client_info": {
          "package_name": "com.example.login_app"
        }
      },
      "oauth_client": [
        {
          "client_id": "1055066053437-pcep10th7n3vjrh9jb98gv3c42it1q3d.apps.googleusercontent.com",
          "client_type": 3
        }
      ],
      "api_key": [
        {
          "current_key": "AIzaSyDLqHhIXP1lvbNJIzoAUyUUyVTpKvVN1No"
        }
      ],
      "services": {
        "appinvite_service": {
          "other_platform_oauth_client": [
            {
              "client_id": "1055066053437-pcep10th7n3vjrh9jb98gv3c42it1q3d.apps.googleusercontent.com",
              "client_type": 3
            }
          ]
        }
      }
    }
  ],
  "configuration_version": "1"
}